{"photos":{"page":1,"pages":9555,"perpage":100,"total":"955424","photo":[{"id":"20096982724","owner":"25889396@N02","secret":"ff8ab3d803","server":"5639","farm":6,"title":"Footless and fancy-free","ispublic":1,"isfriend":0,"isfamily":0},{"id":"20724651731","owner":"31087823@N08","secret":"79b4c39fab","server":"575","farm":1,"title":"_R009103.jpg","ispublic":1,"isfriend":0,"isfamily":0},{"id":"20708462062","owner":"60530393@N07","secret":"a36151a615","server":"5676","farm":6,"title":"Shoes 8-11-15","ispublic":1,"isfriend":0,"isfamily":0},{"id":"20691232106","owner":"119766884@N04","secret":"91c3a3f986","server":"5803","farm":6,"title":"New destination \ud83c\udf66\u26c5\ufe0f #granville #normandy #plagedegranville #sea #seaside #beach #summer #holidays #instatravel #instalove #sandals #kjacques #tropeziennes #sandals #shoefie","ispublic":1,"isfriend":0,"isfamily":0},{"id":"20691230856","owner":"119766884@N04","secret":"89b25d9494","server":"5733","farm":6,"title":"#kjacques#fashiongirls#sttropez#cassia#appia#\ud83d\udc4c","ispublic":1,"isfriend":0,"isfamily":0},{"id":"20530718789","owner":"119766884@N04","secret":"e9f0eddc9f","server":"663","farm":1,"title":"#\u30d5\u30c3\u30c8\u30cd\u30a4\u30eb #nail #\u30d3\u30eb\u30b1\u30f3 #BIRKENSTOCK #\u30de\u30e4\u30ea #mayari \u5ff5\u9858\u301c\u3063 \ud83d\ude0b\ud83c\udf3a\ud83c\udf90\ud83c\udf34\ud83c\udf1f","ispublic":1,"isfriend":0,"isfamily":0},{"id":"20716792785","owner":"99804259@N00","secret":"d71e2fa6dd","server":"5779","farm":6,"title":"Scuffed","ispublic":1,"isfriend":0,"isfamily":0},{"id":"20093756594","owner":"88879780@N06","secret":"25c9c734ae","server":"629","farm":1,"title":"1973 Vintage Quick Curl Barbie","ispublic":1,"isfriend":0,"isfamily":0},{"id":"20522267988","owner":"31261503@N06","secret":"04c1f0125a","server":"5661","farm":6,"title":"","ispublic":1,"isfriend":0,"isfamily":0},{"id":"20522267968","owner":"31261503@N06","secret":"c068de0716","server":"5619","farm":6,"title":"","ispublic":1,"isfriend":0,"isfamily":0},{"id":"20522267908","owner":"31261503@N06","secret":"b549812441","server":"754","farm":1,"title":"","ispublic":1,"isfriend":0,"isfamily":0},{"id":"20518289220","owner":"31261503@N06","secret":"17ce11afbe","server":"774","farm":1,"title":"","ispublic":1,"isfriend":0,"isfamily":0},{"id":"20518289200","owner":"31261503@N06","secret":"4e67f29146","server":"656","farm":1,"title":"","ispublic":1,"isfriend":0,"isfamily":0},{"id":"20518289270","owner":"31261503@N06","secret":"088aff2a30","server":"5679","farm":6,"title":"","ispublic":1,"isfriend":0,"isfamily":0},{"id":"20518289280","owner":"31261503@N06","secret":"9a4994da40","server":"654","farm":1,"title":"","ispublic":1,"isfriend":0,"isfamily":0},{"id":"20706795762","owner":"131647532@N02","secret":"fe433cb740","server":"5758","farm":6,"title":"Hoy en el blog\/today on http:\/\/ift.tt\/1gvvxOJ ~~buenas noches y mil gracias por seguirme cada d\u00eda!!!! Besos de coraz\u00f3n \u2764\ufe0f\u2764\ufe0f\ud83d\ude09","ispublic":1,"isfriend":0,"isfamily":0},{"id":"20706399142","owner":"74959443@N02","secret":"f093f45501","server":"5792","farm":6,"title":"IMG_20150819_171319_165","ispublic":1,"isfriend":0,"isfamily":0},{"id":"20092998844","owner":"123581305@N05","secret":"bf2319ecc3","server":"620","farm":1,"title":"Egoisme Elegant Sportswear 3","ispublic":1,"isfriend":0,"isfamily":0},{"id":"20706271932","owner":"125779624@N08","secret":"e828027693","server":"5791","farm":6,"title":"Meine allerersten Schuhe und meine ersten Chucks","ispublic":1,"isfriend":0,"isfamily":0},{"id":"18831048848","owner":"132796638@N05","secret":"d6d82ede49","server":"3853","farm":4,"title":"","ispublic":1,"isfriend":0,"isfamily":0},{"id":"18309088654","owner":"132796638@N05","secret":"6124bb7400","server":"3914","farm":4,"title":"","ispublic":1,"isfriend":0,"isfamily":0},{"id":"18672395886","owner":"132796638@N05","secret":"531c1de974","server":"310","farm":1,"title":"","ispublic":1,"isfriend":0,"isfamily":0},{"id":"17588699673","owner":"132796638@N05","secret":"bc328f4792","server":"8806","farm":9,"title":"","ispublic":1,"isfriend":0,"isfamily":0},{"id":"18014865710","owner":"132796638@N05","secret":"e017242e4e","server":"8879","farm":9,"title":"","ispublic":1,"isfriend":0,"isfamily":0},{"id":"20705613652","owner":"133796431@N06","secret":"41d0539654","server":"5707","farm":6,"title":"Mint sneakers.","ispublic":1,"isfriend":0,"isfamily":0},{"id":"20714346305","owner":"94224866@N07","secret":"faa5e4ff51","server":"657","farm":1,"title":"Shoes","ispublic":1,"isfriend":0,"isfamily":0},{"id":"20704772742","owner":"52469261@N03","secret":"50b0172971","server":"630","farm":1,"title":"Step On","ispublic":1,"isfriend":0,"isfamily":0},{"id":"20720744901","owner":"25519412@N02","secret":"4745cebd5d","server":"753","farm":1,"title":"Street footography III_244","ispublic":1,"isfriend":0,"isfamily":0},{"id":"20527152399","owner":"25519412@N02","secret":"734cfd49aa","server":"5817","farm":6,"title":"Street footography III_245","ispublic":1,"isfriend":0,"isfamily":0},{"id":"20720743801","owner":"25519412@N02","secret":"b57a440a09","server":"683","farm":1,"title":"Street footography III_246","ispublic":1,"isfriend":0,"isfamily":0},{"id":"20687667656","owner":"25519412@N02","secret":"43e5907e2a","server":"5783","farm":6,"title":"Street footography III_247","ispublic":1,"isfriend":0,"isfamily":0},{"id":"20091325564","owner":"25519412@N02","secret":"a463d78284","server":"5650","farm":6,"title":"Street footography III_248","ispublic":1,"isfriend":0,"isfamily":0},{"id":"20525895250","owner":"25519412@N02","secret":"0be2529917","server":"736","farm":1,"title":"Street footography III_249","ispublic":1,"isfriend":0,"isfamily":0},{"id":"20525894920","owner":"25519412@N02","secret":"cf999917f2","server":"5669","farm":6,"title":"Street footography III_250","ispublic":1,"isfriend":0,"isfamily":0},{"id":"20704483252","owner":"94432124@N03","secret":"41e54b0ebb","server":"5658","farm":6,"title":"Vorschau Elena(23), Schuhgr\u00f6\u00dfe 37","ispublic":1,"isfriend":0,"isfamily":0},{"id":"20091186994","owner":"94432124@N03","secret":"228734f5a0","server":"5683","farm":6,"title":"Vorschau Elena(23), Schuhgr\u00f6\u00dfe 37","ispublic":1,"isfriend":0,"isfamily":0},{"id":"20525768698","owner":"94432124@N03","secret":"609f8bf2f2","server":"5748","farm":6,"title":"Vorschau Elena(23), Schuhgr\u00f6\u00dfe 37","ispublic":1,"isfriend":0,"isfamily":0},{"id":"20091186904","owner":"94432124@N03","secret":"ccd2b1ab26","server":"5686","farm":6,"title":"Vorschau Elena(23), Schuhgr\u00f6\u00dfe 37","ispublic":1,"isfriend":0,"isfamily":0},{"id":"20713770615","owner":"94432124@N03","secret":"d3681dc028","server":"5737","farm":6,"title":"Vorschau Elena(23), Schuhgr\u00f6\u00dfe 37","ispublic":1,"isfriend":0,"isfamily":0},{"id":"20687375866","owner":"118540644@N04","secret":"f87a1ecfe4","server":"737","farm":1,"title":"Guys, what do you think about these Shoes?    Yes?    No?    Maybe so?    With the right mindset, these Shoes can take a Man's style really far. Really far.    Visit www.LenMelekard.com\/outfitideas.html for purchasing information.","ispublic":1,"isfriend":0,"isfamily":0},{"id":"20090635584","owner":"80456098@N06","secret":"56a69b4be3","server":"625","farm":1,"title":"Girls night out","ispublic":1,"isfriend":0,"isfamily":0},{"id":"20526258829","owner":"16210667@N02","secret":"44f60c1fc6","server":"5798","farm":6,"title":"All laced up !","ispublic":1,"isfriend":0,"isfamily":0},{"id":"20719672961","owner":"7250148@N05","secret":"0619e8e509","server":"714","farm":1,"title":"DSCF5273","ispublic":1,"isfriend":0,"isfamily":0},{"id":"20703451892","owner":"102920914@N07","secret":"0628963a05","server":"5762","farm":6,"title":"Spotted today..(View signs)","ispublic":1,"isfriend":0,"isfamily":0},{"id":"20523628770","owner":"125417698@N05","secret":"290e7b72a9","server":"746","farm":1,"title":"Who Doesn't Wear Pearls To Do Housework?","ispublic":1,"isfriend":0,"isfamily":0},{"id":"20090638093","owner":"95078344@N03","secret":"08030d3a29","server":"5714","farm":6,"title":"","ispublic":1,"isfriend":0,"isfamily":0},{"id":"20701820352","owner":"49829859@N07","secret":"a5c2e1713f","server":"5734","farm":6,"title":"Leekeworld Homepage","ispublic":1,"isfriend":0,"isfamily":0},{"id":"20711008875","owner":"103883763@N02","secret":"acc45f7ebf","server":"700","farm":1,"title":"#fashion #abbellire #khobar #alkhobar #rashidmall #alrashidmall #saudi #KSA #womenswear #couture #riyadh #jeddah #kuwait #qatar #qatarfashion #oman #UAE #dubai #abudhabi #bahrain #shoes #lingerie #dress #pants #accessories #\u0627\u0632\u064a\u0627\u0621","ispublic":1,"isfriend":0,"isfamily":0},{"id":"20684758626","owner":"103883763@N02","secret":"0750607fc1","server":"760","farm":1,"title":"#fashion #abbellire #khobar #alkhobar #rashidmall #alrashidmall #saudi #KSA #womenswear #couture #riyadh #jeddah #kuwait #qatar #qatarfashion #oman #UAE #dubai #abudhabi #bahrain #shoes #lingerie #dress #pants #accessories #\u0627\u0632\u064a\u0627\u0621","ispublic":1,"isfriend":0,"isfamily":0},{"id":"20522984048","owner":"45565135@N00","secret":"20ed8beacb","server":"615","farm":1,"title":"Doc Martens & ? 145","ispublic":1,"isfriend":0,"isfamily":0},{"id":"20087186894","owner":"55414609@N06","secret":"0c11984e19","server":"750","farm":1,"title":"So happy!","ispublic":1,"isfriend":0,"isfamily":0},{"id":"20088731083","owner":"88649404@N03","secret":"82fdfe44f5","server":"5795","farm":6,"title":"Follow my way...","ispublic":1,"isfriend":0,"isfamily":0},{"id":"20716307291","owner":"75672088@N03","secret":"764caa23ca","server":"575","farm":1,"title":"another photo from the omob bbq.","ispublic":1,"isfriend":0,"isfamily":0},{"id":"20522550429","owner":"54922093@N06","secret":"8889abd3d9","server":"5720","farm":6,"title":"Who remembers the Aqua? There's a call to bring it back #BringBackAqua If you'd like to see it return join in. Link in profile. #VivoAqua","ispublic":1,"isfriend":0,"isfamily":0},{"id":"20087265973","owner":"92344829@N00","secret":"ae3d74e60f","server":"5653","farm":6,"title":"Kitana","ispublic":1,"isfriend":0,"isfamily":0},{"id":"20682231676","owner":"130014736@N07","secret":"aa46cfe22b","server":"704","farm":1,"title":"Aetrex Women\u2019s Essence Jane High Lace Shoes Black Leather","ispublic":1,"isfriend":0,"isfamily":0},{"id":"20519626000","owner":"58306746@N06","secret":"c63c999b2a","server":"5741","farm":6,"title":"Alter - Glamistry - Pulse Treasure - Catwa","ispublic":1,"isfriend":0,"isfamily":0},{"id":"20078476173","owner":"66965678@N05","secret":"0aa665514f","server":"565","farm":1,"title":"DBM4","ispublic":1,"isfriend":0,"isfamily":0},{"id":"20078475503","owner":"66965678@N05","secret":"a4626a0495","server":"5712","farm":6,"title":"DBM3","ispublic":1,"isfriend":0,"isfamily":0},{"id":"20512681739","owner":"66965678@N05","secret":"d42322a894","server":"685","farm":1,"title":"DBM2","ispublic":1,"isfriend":0,"isfamily":0},{"id":"20078473813","owner":"66965678@N05","secret":"4e02c23853","server":"733","farm":1,"title":"Nirvana","ispublic":1,"isfriend":0,"isfamily":0},{"id":"20511059670","owner":"66965678@N05","secret":"a8af1724ea","server":"5704","farm":6,"title":"1_CIS8426","ispublic":1,"isfriend":0,"isfamily":0},{"id":"20672793696","owner":"66965678@N05","secret":"23cc55d142","server":"5740","farm":6,"title":"1_CIS8431","ispublic":1,"isfriend":0,"isfamily":0},{"id":"20699053635","owner":"66965678@N05","secret":"00b495cbc5","server":"672","farm":1,"title":"1_CIS8432","ispublic":1,"isfriend":0,"isfamily":0},{"id":"20699052865","owner":"66965678@N05","secret":"6a1e4424d7","server":"747","farm":1,"title":"1_CIS8433","ispublic":1,"isfriend":0,"isfamily":0},{"id":"20511060928","owner":"66965678@N05","secret":"7b32e017ae","server":"5739","farm":6,"title":"Fragment","ispublic":1,"isfriend":0,"isfamily":0},{"id":"20511060088","owner":"66965678@N05","secret":"44a9c0f235","server":"642","farm":1,"title":"Supreme","ispublic":1,"isfriend":0,"isfamily":0},{"id":"20511055210","owner":"66965678@N05","secret":"e43924d7c1","server":"714","farm":1,"title":"1_CIS8470","ispublic":1,"isfriend":0,"isfamily":0},{"id":"20078102213","owner":"66965678@N05","secret":"7d6025d1b9","server":"5834","farm":6,"title":"Pickups","ispublic":1,"isfriend":0,"isfamily":0},{"id":"20511057718","owner":"66965678@N05","secret":"b2eb60b9b4","server":"755","farm":1,"title":"DBM","ispublic":1,"isfriend":0,"isfamily":0},{"id":"20699047905","owner":"66965678@N05","secret":"65d76fdf9f","server":"585","farm":1,"title":"Streetwear Politics","ispublic":1,"isfriend":0,"isfamily":0},{"id":"20672785986","owner":"66965678@N05","secret":"b48331615e","server":"645","farm":1,"title":"Yeezy Boost 350 \"Pirate Black\"","ispublic":1,"isfriend":0,"isfamily":0},{"id":"20511055038","owner":"66965678@N05","secret":"7f8f0fc65b","server":"5820","farm":6,"title":"1_CIS8595","ispublic":1,"isfriend":0,"isfamily":0},{"id":"20705839371","owner":"66965678@N05","secret":"0a7f493fec","server":"592","farm":1,"title":"1_CIS8596","ispublic":1,"isfriend":0,"isfamily":0},{"id":"20511048150","owner":"66965678@N05","secret":"48120f6191","server":"5794","farm":6,"title":"1_CIS8599","ispublic":1,"isfriend":0,"isfamily":0},{"id":"20672780626","owner":"66965678@N05","secret":"195edd6e43","server":"5800","farm":6,"title":"1_CIS8600","ispublic":1,"isfriend":0,"isfamily":0},{"id":"20672779506","owner":"66965678@N05","secret":"dedd51eb70","server":"5789","farm":6,"title":"Harrahs","ispublic":1,"isfriend":0,"isfamily":0},{"id":"20672779016","owner":"66965678@N05","secret":"4353d8280e","server":"5623","farm":6,"title":"1_CIS8607","ispublic":1,"isfriend":0,"isfamily":0},{"id":"20511044090","owner":"66965678@N05","secret":"816f6de5fe","server":"735","farm":1,"title":"1_CIS8611","ispublic":1,"isfriend":0,"isfamily":0},{"id":"20705832921","owner":"66965678@N05","secret":"ed529ef03d","server":"5706","farm":6,"title":"Flamingo","ispublic":1,"isfriend":0,"isfamily":0},{"id":"20689771982","owner":"66965678@N05","secret":"52c449f81b","server":"5635","farm":6,"title":"Paris","ispublic":1,"isfriend":0,"isfamily":0},{"id":"20511041290","owner":"66965678@N05","secret":"7d6ab5e5d8","server":"5776","farm":6,"title":"In N Out","ispublic":1,"isfriend":0,"isfamily":0},{"id":"20076461174","owner":"66965678@N05","secret":"0bc32e07e2","server":"732","farm":1,"title":"2_CIS8602","ispublic":1,"isfriend":0,"isfamily":0},{"id":"20078087653","owner":"66965678@N05","secret":"9a896e802d","server":"5780","farm":6,"title":"blue_CIS8419","ispublic":1,"isfriend":0,"isfamily":0},{"id":"20511038920","owner":"66965678@N05","secret":"aaf2bb4b70","server":"638","farm":1,"title":"green_CIS8419","ispublic":1,"isfriend":0,"isfamily":0},{"id":"20705828791","owner":"66965678@N05","secret":"fb373ee2d7","server":"710","farm":1,"title":"pink_CIS8615","ispublic":1,"isfriend":0,"isfamily":0},{"id":"20511040388","owner":"66965678@N05","secret":"0cd75a2a9d","server":"641","farm":1,"title":"1_CIS8444","ispublic":1,"isfriend":0,"isfamily":0},{"id":"20705826201","owner":"66965678@N05","secret":"51d9355d61","server":"5661","farm":6,"title":"red_CIS8419","ispublic":1,"isfriend":0,"isfamily":0},{"id":"18905363084","owner":"132796638@N05","secret":"50536815c3","server":"342","farm":1,"title":"","ispublic":1,"isfriend":0,"isfamily":0},{"id":"19217725656","owner":"132796638@N05","secret":"510df7a28d","server":"352","farm":1,"title":"","ispublic":1,"isfriend":0,"isfamily":0},{"id":"18677932311","owner":"132796638@N05","secret":"70702ccd95","server":"336","farm":1,"title":"","ispublic":1,"isfriend":0,"isfamily":0},{"id":"20519597260","owner":"68066066@N08","secret":"d477d4128a","server":"5697","farm":6,"title":"What's left behind","ispublic":1,"isfriend":0,"isfamily":0},{"id":"20698117602","owner":"58306746@N06","secret":"423f1e58ff","server":"740","farm":1,"title":"Dead Dollz - Blueberry - Truth - Ariskea","ispublic":1,"isfriend":0,"isfamily":0},{"id":"20697701232","owner":"126833828@N02","secret":"bdb3a3e92f","server":"5724","farm":6,"title":"Wonderful Wednesday","ispublic":1,"isfriend":0,"isfamily":0},{"id":"20520149119","owner":"28085418@N07","secret":"2d709b627f","server":"565","farm":1,"title":"Memorial","ispublic":1,"isfriend":0,"isfamily":0},{"id":"20518802680","owner":"28085418@N07","secret":"62ba9ba1b1","server":"733","farm":1,"title":"Shoes on the Danube Bank","ispublic":1,"isfriend":0,"isfamily":0},{"id":"20519932519","owner":"100786833@N08","secret":"182a5f415e","server":"614","farm":1,"title":"zapatos","ispublic":1,"isfriend":0,"isfamily":0},{"id":"20083822634","owner":"79981732@N04","secret":"e9f798971d","server":"586","farm":1,"title":"Cassandra Can\u2019t Decide on Shoes","ispublic":1,"isfriend":0,"isfamily":0},{"id":"20085404813","owner":"89558325@N00","secret":"de11df025c","server":"781","farm":1,"title":"in the limelight","ispublic":1,"isfriend":0,"isfamily":0},{"id":"20517671958","owner":"12673279@N07","secret":"3d83327773","server":"5720","farm":6,"title":"Travis & Vivian","ispublic":1,"isfriend":0,"isfamily":0}]},"stat":"ok"}